<svg width="296" height="228" viewBox="0 0 296 228" fill="none" xmlns="http://www.w3.org/2000/svg">
<path d="M294.5 156.467C294.5 175.319 278.642 192.821 251.999 205.698C225.461 218.525 188.694 226.5 148 226.5C107.306 226.5 70.539 218.525 44.0009 205.698C17.358 192.821 1.5 175.319 1.5 156.467C1.5 137.615 17.358 120.113 44.0009 107.236C70.539 94.4095 107.306 86.4341 148 86.4341C188.694 86.4341 225.461 94.4095 251.999 107.236C278.642 120.113 294.5 137.615 294.5 156.467Z" fill="#3B4D81" stroke="black" stroke-width="3"/>
<path d="M182.003 78.1732C200.666 154.368 176.434 135.781 148.252 135.781C120.07 135.781 95.0557 158.793 114.502 78.1732C116.59 69.5151 123.141 60.9919 130.886 55.9414C131.421 55.5924 129.248 49.5895 124.988 45.7082C123.608 43.6217 121.383 45.7082 120.728 40.415C120.378 37.5916 122.694 35.6513 123.677 35.1215C124.66 34.5916 127.533 33.357 129.248 34.4159C130.962 35.4746 131.869 36.1804 131.541 42.1794C132.525 48.178 136.601 52.9848 137.112 52.7655C140.867 51.1541 144.933 50.6485 148.252 50.6485C151.445 50.6485 155.008 51.385 158.597 52.7655C159.204 52.9987 163.654 48.8837 165.293 43.5905C165.948 41.4732 164.31 37.9444 165.737 36.18C169.88 32.2983 173.079 34.9148 173.485 35.1215C174.796 35.7897 177.089 39.0031 175.779 42.1794C174.796 45.002 171.403 44.7108 170.536 46.7665C166.604 50.6485 165.38 55.5763 165.948 55.9414C173.443 60.7567 179.736 68.9177 182.003 78.1732Z" fill="#76A536"/>
<ellipse cx="147.926" cy="79.0406" rx="24.2486" ry="25.7603" fill="#588330"/>
<ellipse cx="147.936" cy="78.9778" rx="20.644" ry="21.8787" fill="#EDF5F3"/>
<ellipse cx="147.935" cy="78.978" rx="14.7457" ry="15.5268" fill="#A0D4D1"/>
<ellipse cx="147.936" cy="78.978" rx="6.88135" ry="7.05763" fill="black"/>
<path d="M117.788 104.032C125.652 115.207 154.816 127.675 176.443 104.032C166.286 124.852 137.778 134.38 117.788 104.032Z" fill="#588330" stroke="black"/>
<path d="M131.574 114.154L124.89 110.663C124.89 110.663 123.813 116.121 126.512 117.582C129.212 119.044 131.574 114.154 131.574 114.154Z" fill="#EDF5F3" stroke="black"/>
<path d="M144.535 121.209C146.732 121.412 146.952 117.442 146.952 117.442C146.952 117.442 145.318 117.447 144.535 117.447C143.752 117.447 141.709 117.09 141.709 117.09C141.709 117.09 142.339 121.006 144.535 121.209Z" fill="#EDF5F3" stroke="black"/>
<path d="M147.607 117.442L153.178 117.089C153.178 117.089 152.753 121.121 150.557 121.323C148.361 121.526 147.607 117.442 147.607 117.442Z" fill="#EDF5F3" stroke="black"/>
<path d="M163.307 114.243L169.854 110.462C169.854 110.462 171.136 115.868 168.495 117.447C165.853 119.025 163.307 114.243 163.307 114.243Z" fill="#EDF5F3" stroke="black"/>
<path d="M138.186 123.682C135.185 123.305 133.668 118.064 133.846 115.324C133.846 115.324 135.742 115.944 137.778 116.383C139.416 116.736 141.385 117.088 141.385 117.088C139.371 120.149 140.806 124.012 138.186 123.682Z" fill="#EDF5F3" stroke="black"/>
<path d="M157.309 124.02C160.296 123.529 161.641 118.234 161.374 115.503C161.374 115.503 159.499 116.194 157.479 116.71C155.853 117.124 153.897 117.551 153.897 117.551C156.01 120.534 154.701 124.448 157.309 124.02Z" fill="#EDF5F3" stroke="black"/>
<path d="M237.672 94.4843C242.58 112.242 242.443 123.705 239.104 131.018C235.83 138.188 229.292 141.728 220.289 143.174C211.24 144.627 200.012 143.907 187.833 142.79C185.732 142.597 183.604 142.392 181.457 142.186C171.233 141.204 160.579 140.18 150.38 140.18C138.492 140.18 125.877 142.207 114.002 144.115C113.494 144.196 112.987 144.278 112.482 144.359C100.081 146.347 88.6359 148.088 79.4396 147.311C70.3204 146.541 63.7927 143.34 60.6419 135.736C57.3941 127.898 57.5578 115.039 63.0903 94.4743C70.512 66.8872 80.3716 43.6174 94.356 27.2632C108.286 10.9724 126.341 1.5 150.38 1.5C174.381 1.5 192.569 11.7705 206.585 28.497C220.647 45.2771 230.507 68.5611 237.672 94.4843Z" fill="#D8E2F3" fill-opacity="0.2" stroke="black" stroke-width="3"/>
<path d="M148 185.728C162.365 185.728 211.105 185.718 294.197 161.612C291.218 179.122 275.52 194.752 250.486 206.197C224.46 218.096 188.712 225.277 148 225.277C107.322 225.277 71.2674 216.907 45.0734 204.406C31.9751 198.155 21.3901 190.894 13.9227 183.175C7.12242 176.145 2.97033 168.805 1.76524 161.546C92.8804 185.711 133.595 185.728 148 185.728Z" fill="#D8191F" stroke="black" stroke-width="3"/>
<path d="M51.9408 148.535C51.2802 153.531 47.48 155.98 43.7719 154.574C40.0638 153.167 37.2434 148.206 37.904 143.211C38.5646 138.215 42.3648 135.766 46.0729 137.173C49.781 138.579 52.6013 143.54 51.9408 148.535Z" fill="#EBFF00" stroke="black" stroke-width="3"/>
<path d="M156.608 160.136C156.608 165.315 153.157 169.03 149.445 169.03C145.733 169.03 142.281 165.315 142.281 160.136C142.281 154.957 145.733 151.242 149.445 151.242C153.157 151.242 156.608 154.957 156.608 160.136Z" fill="#EBFF00" stroke="black" stroke-width="3"/>
<path d="M261.944 143.353C262.721 148.26 260.048 153.433 256.336 155.118C252.623 156.803 248.782 154.586 248.005 149.679C247.229 144.771 249.901 139.598 253.614 137.913C257.327 136.228 261.168 138.445 261.944 143.353Z" fill="#EBFF00" stroke="black" stroke-width="3"/>
</svg>
