<svg width="13" height="13" viewBox="0 0 13 13" fill="none" xmlns="http://www.w3.org/2000/svg">
<path fill-rule="evenodd" clip-rule="evenodd" d="M10.396 4.45518C10.7834 4.0682 11.4112 4.06838 11.7984 4.45559V4.45559C12.1857 4.84296 12.1857 5.471 11.7984 5.85838L5.60462 12.0523C5.27633 12.3806 4.74406 12.3806 4.41576 12.0523L3.60783 11.2444L1.05406 8.70662C0.661653 8.31667 0.660398 7.68222 1.05125 7.29073V7.29073C1.44125 6.90009 2.074 6.89932 2.46495 7.289L4.53196 9.34935C4.79863 9.61516 5.23015 9.61494 5.49656 9.34885L10.396 4.45518Z" fill="#0497BA"/>
</svg>
