<svg width="25" height="25" viewBox="0 0 25 25" fill="none" xmlns="http://www.w3.org/2000/svg">
<path d="M24.7569 10.2049H23.75V10.1562H12.5V14.8438H19.5644C18.5338 17.5725 15.7644 19.5312 12.5 19.5312C8.35813 19.5312 5 16.383 5 12.5C5 8.61699 8.35813 5.46875 12.5 5.46875C14.4119 5.46875 16.1513 6.14492 17.4756 7.24941L21.0113 3.93477C18.7788 1.98418 15.7925 0.78125 12.5 0.78125C5.59688 0.78125 0 6.02832 0 12.5C0 18.9717 5.59688 24.2188 12.5 24.2188C19.4031 24.2188 25 18.9717 25 12.5C25 11.7143 24.9138 10.9473 24.7569 10.2049Z" fill="#FFC107"/>
<path d="M1.44141 7.04551L5.54828 9.86914C6.65953 7.28984 9.35078 5.46875 12.5002 5.46875C14.412 5.46875 16.1514 6.14492 17.4758 7.24941L21.0114 3.93477C18.7789 1.98418 15.7927 0.78125 12.5002 0.78125C7.69891 0.78125 3.53516 3.32246 1.44141 7.04551Z" fill="#FF3D00"/>
<path d="M12.5002 24.2188C15.7289 24.2188 18.6627 23.0604 20.8808 21.1767L17.0121 18.1075C15.7149 19.0324 14.1299 19.5326 12.5002 19.5313C9.24895 19.5313 6.48832 17.5878 5.44832 14.8755L1.37207 17.8198C3.44082 21.6149 7.64207 24.2188 12.5002 24.2188Z" fill="#4CAF50"/>
<path d="M24.7569 10.2049H23.75V10.1562H12.5V14.8438H19.5644C19.0714 16.1424 18.1833 17.2773 17.01 18.108L17.0119 18.1068L20.8806 21.176C20.6069 21.4092 25 18.3594 25 12.5C25 11.7143 24.9137 10.9473 24.7569 10.2049Z" fill="#1976D2"/>
</svg>
