<svg width="525" height="346" viewBox="0 0 525 346" fill="none" xmlns="http://www.w3.org/2000/svg">
<path d="M230 118C234.971 118 239 122.029 239 127L239 218C239 222.971 234.971 227 230 227L18.0362 227C10.6131 227 6.38148 218.52 10.8448 212.588L36.9396 177.912C39.3512 174.707 39.3512 170.293 36.9396 167.088L10.8448 132.412C6.38148 126.48 10.6131 118 18.0362 118L230 118Z" fill="url(#paint0_linear_1131_1093)"/>
<path d="M237.5 127L237.5 218C237.5 222.142 234.142 225.5 230 225.5L18.0362 225.5C11.8503 225.5 8.32393 218.433 12.0434 213.49L38.1382 178.813C40.9516 175.075 40.9516 169.925 38.1381 166.187L12.0434 131.51C8.32393 126.567 11.8503 119.5 18.0362 119.5L230 119.5C234.142 119.5 237.5 122.858 237.5 127Z" stroke="black" stroke-opacity="0.17" stroke-width="3"/>
<path d="M295 118C290.029 118 286 122.029 286 127L286 218C286 222.971 290.029 227 295 227L506.964 227C514.387 227 518.619 218.52 514.155 212.588L488.06 177.912C485.649 174.707 485.649 170.293 488.06 167.088L514.155 132.412C518.619 126.48 514.387 118 506.964 118L295 118Z" fill="url(#paint1_linear_1131_1093)"/>
<path d="M287.5 127L287.5 218C287.5 222.142 290.858 225.5 295 225.5L506.964 225.5C513.15 225.5 516.676 218.433 512.957 213.49L486.862 178.813C484.048 175.075 484.048 169.925 486.862 166.187L512.957 131.51C516.676 126.567 513.15 119.5 506.964 119.5L295 119.5C290.858 119.5 287.5 122.858 287.5 127Z" stroke="black" stroke-opacity="0.17" stroke-width="3"/>
<path d="M435 173C435 268.545 357.545 346 262 346C166.455 346 89 268.545 89 173C89 77.4547 166.455 0 262 0C357.545 0 435 77.4547 435 173Z" fill="#004758"/>
<path d="M392 173C392 244.797 333.797 303 262 303C190.203 303 132 244.797 132 173C132 101.203 190.203 43 262 43C333.797 43 392 101.203 392 173Z" fill="url(#paint2_radial_1131_1093)"/>
<path d="M230.301 163.256C229.519 163.256 228.733 163.031 228.038 162.561C214.227 153.212 204.787 138.18 202.138 121.795C201.593 118.423 202.572 114.969 204.823 112.323C207.16 109.575 210.567 108 214.168 108H229.657C231.892 108 233.7 109.808 233.7 112.043C233.7 114.278 231.892 116.086 229.657 116.086H214.168C212.94 116.086 211.779 116.623 210.982 117.563C210.56 118.056 209.892 119.095 210.121 120.504C212.415 134.702 220.6 147.76 232.571 155.865C234.418 157.117 234.904 159.632 233.653 161.48C232.871 162.632 231.595 163.256 230.301 163.256Z" fill="#FEA832"/>
<path d="M293.699 163.256C292.404 163.256 291.129 162.636 290.347 161.48C289.096 159.632 289.581 157.117 291.429 155.865C303.4 147.76 311.585 134.702 313.879 120.508C314.108 119.094 313.441 118.056 313.018 117.562C312.221 116.623 311.06 116.086 309.832 116.086H294.343C292.108 116.086 290.3 114.278 290.3 112.043C290.3 109.808 292.108 108 294.343 108H309.832C313.433 108 316.84 109.575 319.177 112.323C321.428 114.968 322.407 118.423 321.862 121.799C319.213 138.18 309.773 153.212 295.962 162.561C295.267 163.031 294.477 163.256 293.699 163.256Z" fill="#FE9923"/>
<path d="M274.129 181.043H249.871V213.387H274.129V181.043Z" fill="#FEA832"/>
<path d="M274.129 181.043H262V213.387H274.129V181.043Z" fill="#FE9923"/>
<path d="M298.225 240.987L290.139 208.373C289.735 206.594 288.117 205.301 286.258 205.301H237.742C235.883 205.301 234.265 206.594 233.861 208.373L225.775 240.987C225.452 242.199 225.695 243.493 226.503 244.464C227.231 245.434 228.444 246 229.656 246H294.344C295.557 246 296.77 245.434 297.497 244.464C298.306 243.493 298.549 242.199 298.225 240.987Z" fill="#FEDB41"/>
<path d="M225.613 108V151.125C225.613 170.127 239.441 187.107 258.361 188.967C259.574 189.048 260.787 189.129 262 189.129C282.053 189.129 298.387 172.795 298.387 152.742V108H225.613Z" fill="#FEDB41"/>
<path d="M274.129 225.516C274.129 227.779 272.35 229.559 270.086 229.559H253.914C251.65 229.559 249.871 227.779 249.871 225.516C249.871 223.251 251.65 221.473 253.914 221.473H270.086C272.35 221.473 274.129 223.251 274.129 225.516Z" fill="#FEA832"/>
<path d="M274.129 225.516C274.129 227.779 272.35 229.559 270.086 229.559H262V221.473H270.086C272.35 221.473 274.129 223.251 274.129 225.516Z" fill="#FE9923"/>
<path d="M282.053 138.673C281.568 137.217 280.274 136.166 278.738 135.923L269.763 134.63L265.8 126.544C265.073 125.088 263.536 124.441 262 124.441C260.626 124.522 259.251 125.25 258.523 126.544L254.48 134.63L245.505 135.923C243.968 136.166 242.755 137.217 242.27 138.673C241.785 140.209 242.189 141.745 243.24 142.877L249.79 149.184L248.254 158.16C248.011 159.615 248.577 161.152 249.871 162.041C251.084 163.011 252.782 163.092 254.076 162.364L262 158.241L262.162 158.16L270.167 162.365C270.733 162.688 271.38 162.85 272.027 162.85C272.916 162.85 273.725 162.607 274.452 162.041C275.666 161.152 276.312 159.615 276.07 158.16L274.533 149.185L281.002 142.877C282.134 141.745 282.458 140.209 282.053 138.673Z" fill="#FEA832"/>
<path d="M281.002 142.877L274.533 149.184L276.069 158.16C276.312 159.615 275.665 161.152 274.452 162.041C273.725 162.607 272.916 162.85 272.026 162.85C271.379 162.85 270.733 162.688 270.167 162.364L262.162 158.159L262 158.241V124.441C263.536 124.441 265.073 125.088 265.8 126.544L269.763 134.63L278.738 135.923C280.274 136.166 281.568 137.217 282.053 138.673C282.458 140.209 282.134 141.745 281.002 142.877Z" fill="#FE9923"/>
<defs>
<linearGradient id="paint0_linear_1131_1093" x1="255.259" y1="155.49" x2="22.4465" y2="287.984" gradientUnits="userSpaceOnUse">
<stop stop-color="#FFF9AA"/>
<stop offset="1" stop-color="#FFEC00"/>
</linearGradient>
<linearGradient id="paint1_linear_1131_1093" x1="269.741" y1="155.49" x2="502.553" y2="287.984" gradientUnits="userSpaceOnUse">
<stop stop-color="#FFF9AA"/>
<stop offset="1" stop-color="#FFEC00"/>
</linearGradient>
<radialGradient id="paint2_radial_1131_1093" cx="0" cy="0" r="1" gradientUnits="userSpaceOnUse" gradientTransform="translate(223 66.4) rotate(61.8493) scale(336.165)">
<stop offset="0.0332708" stop-color="#1F9BB9"/>
<stop offset="1" stop-color="#004758"/>
</radialGradient>
</defs>
</svg>
