<svg width="25" height="24" viewBox="0 0 25 24" fill="none" xmlns="http://www.w3.org/2000/svg">
<path d="M12.4996 23.8C5.91961 23.8 0.599609 18.48 0.599609 11.9C0.599609 5.32 5.91961 0 12.4996 0C19.0796 0 24.3996 5.32 24.3996 11.9C24.3996 18.48 19.0796 23.8 12.4996 23.8ZM12.4996 1.4C6.68961 1.4 1.99961 6.09 1.99961 11.9C1.99961 17.71 6.68961 22.4 12.4996 22.4C18.3096 22.4 22.9996 17.71 22.9996 11.9C22.9996 6.09 18.3096 1.4 12.4996 1.4Z" fill="#F9F9F9"/>
<path d="M6 10.8H18.6V12.2H6V10.8Z" fill="#F9F9F9"/>
<path d="M11.7998 5.59985H13.1998V18.1999H11.7998V5.59985Z" fill="#F9F9F9"/>
</svg>
