<svg width="100" height="96" viewBox="0 0 100 96" fill="none" xmlns="http://www.w3.org/2000/svg">
<path d="M65.4449 29.8958L65.7941 30.6027L66.5744 30.716L96.5477 35.0664C96.5482 35.0664 96.5486 35.0665 96.549 35.0666C97.811 35.2545 98.6621 36.4123 98.4734 37.634L98.4721 37.6423L98.4709 37.6506C98.4006 38.1425 98.1681 38.5966 97.8093 38.9481C97.8091 38.9484 97.8088 38.9486 97.8085 38.9489L76.1218 60.065L75.5562 60.6157L75.6899 61.3937L80.8141 91.2147L80.8143 91.2159C81.0266 92.4456 80.1995 93.6195 78.9563 93.8336L78.9542 93.834C78.4608 93.9197 77.9495 93.8393 77.5181 93.61L77.5113 93.6064L50.6976 79.5272L50.0002 79.1611L49.3029 79.5272L22.4891 93.6064L22.4868 93.6077C22.1112 93.8057 21.6873 93.8948 21.2634 93.8646C20.8394 93.8344 20.4326 93.6862 20.089 93.437C19.7455 93.1878 19.479 92.8476 19.3194 92.4553C19.1599 92.0629 19.1137 91.6339 19.186 91.2167L19.1863 91.2147L24.3106 61.3937L24.4443 60.6157L23.8787 60.065L2.18916 38.9462L2.18907 38.9461C1.75574 38.5242 1.5082 37.9482 1.5002 37.3448C1.49221 36.7423 1.72363 36.1609 2.14432 35.728C2.49615 35.3703 2.95103 35.138 3.44444 35.0676L3.44804 35.0671L33.4261 30.716L34.2064 30.6027L34.5555 29.8958L47.9529 2.77048C47.9535 2.76939 47.954 2.7683 47.9545 2.76722C48.5208 1.64053 49.8925 1.18183 51.0135 1.73454L51.0153 1.7354C51.4622 1.95504 51.8238 2.3163 52.0433 2.76191L52.044 2.76321L65.4449 29.8958Z" fill="url(#paint0_linear)" stroke="url(#paint1_linear)" stroke-width="3"/>
<defs>
<linearGradient id="paint0_linear" x1="50" y1="0" x2="50" y2="95.3704" gradientUnits="userSpaceOnUse">
<stop stop-color="white"/>
<stop offset="1" stop-color="#FFEC00"/>
</linearGradient>
<linearGradient id="paint1_linear" x1="33.5766" y1="10.1923" x2="59.3617" y2="112.875" gradientUnits="userSpaceOnUse">
<stop stop-color="#3996AC"/>
<stop offset="1" stop-color="#004758"/>
</linearGradient>
</defs>
</svg>
