<svg width="262" height="262" viewBox="0 0 262 262" fill="none" xmlns="http://www.w3.org/2000/svg">
<path d="M87.624 31.8234C87.624 56.2359 72.3661 76.2891 53.6208 75.8531C-1.30731 74.5453 21.3614 0 21.3614 0C40.1068 0 87.624 7.41094 87.624 31.8234Z" fill="#F29A2E"/>
<path d="M66.6995 36.6188C66.6995 49.6969 58.4167 60.1594 48.3902 60.1594C19.1823 59.2875 30.9527 19.6172 30.9527 19.6172C41.4152 19.6172 66.6995 23.5406 66.6995 36.6188Z" fill="#BC600D"/>
<path d="M173.94 31.8234C173.94 56.2359 189.198 76.2891 207.944 75.8531C262.872 74.5453 240.203 0 240.203 0C221.458 0 173.94 7.41094 173.94 31.8234" fill="#F29A2E"/>
<path d="M194.865 36.6188C194.865 49.6969 203.148 60.1594 213.175 60.1594C242.382 59.2875 230.612 19.6172 230.612 19.6172C220.15 19.6172 194.865 23.5406 194.865 36.6188Z" fill="#BC600D"/>
<path d="M244.125 173.067C244.125 212.737 17.4375 212.737 17.4375 173.067C17.4375 7.84639 82.3922 12.2058 130.781 12.2058C179.17 12.2058 244.125 7.84639 244.125 173.067" fill="#F29A2E"/>
<path d="M176.553 46.2083C166.527 8.28178 95.033 7.4099 85.4424 46.6443C105.06 29.2068 156.5 29.2068 176.553 46.2083Z" fill="#3E4347"/>
<path d="M162.166 61.0297C155.627 35.3094 106.366 34.8735 99.8271 61.0297C115.957 47.0797 145.601 47.0797 162.166 61.0297Z" fill="#3E4347"/>
<path d="M0.523574 149.942C1.12384 130.444 7.31419 115.791 13.3942 105.977C16.4814 100.995 19.5403 97.2595 21.8245 94.7725C22.9666 93.5291 23.9147 92.598 24.5755 91.9793C24.6086 91.9482 24.641 91.918 24.6727 91.8885C24.6626 92.008 24.6519 92.1354 24.6408 92.2707C24.5531 93.3358 24.436 94.8876 24.3179 96.8366C24.0815 100.734 23.841 106.222 23.824 112.586C23.7899 125.305 24.6482 141.551 28.2329 155.589C31.8085 169.591 38.1451 181.581 49.2101 185.492C60.262 189.399 75.7527 185.153 97.3926 167.463H163.734C185.483 185.262 201.054 189.562 212.167 185.677C223.294 181.786 229.672 169.783 233.275 155.753C236.887 141.688 237.759 125.4 237.732 112.647C237.718 106.267 237.479 100.764 237.244 96.8547C237.126 94.9001 237.009 93.3439 236.922 92.2757C236.91 92.1384 236.9 92.0091 236.889 91.8881C236.921 91.9177 236.954 91.9481 236.987 91.9793C237.648 92.598 238.596 93.5291 239.738 94.7725C242.022 97.2595 245.081 100.995 248.168 105.977C254.248 115.791 260.439 130.444 261.039 149.942L250.047 143.429L248.637 142.593L249.341 144.073L249.341 144.074L249.342 144.077L249.348 144.09L249.373 144.144C249.396 144.193 249.43 144.268 249.473 144.367C249.561 144.565 249.688 144.862 249.845 145.252C250.161 146.033 250.598 147.189 251.081 148.679C252.047 151.659 253.198 155.976 253.929 161.31C255.368 171.81 255.181 186.248 248.768 202.197L236.659 188L235.91 187.123L235.781 188.268L235.781 188.268L235.781 188.269L235.781 188.272L235.779 188.287C235.777 188.3 235.775 188.321 235.771 188.35C235.764 188.406 235.752 188.491 235.736 188.603C235.703 188.828 235.65 189.162 235.571 189.595C235.412 190.459 235.148 191.716 234.726 193.275C233.882 196.394 232.41 200.718 229.895 205.53C224.931 215.031 215.907 226.436 199.631 234.224L197.976 221.392L197.862 220.514L197.169 221.064L197.168 221.064L197.166 221.066L197.153 221.076L197.1 221.117C197.053 221.154 196.981 221.209 196.885 221.281C196.693 221.425 196.405 221.638 196.023 221.91C195.258 222.452 194.117 223.23 192.618 224.164C189.618 226.033 185.185 228.528 179.461 231.024C168.013 236.015 151.407 241.009 130.781 241.009C110.156 241.009 93.5495 236.015 82.1016 231.024C76.3777 228.528 71.9445 226.033 68.945 224.164C67.4453 223.23 66.3042 222.452 65.5396 221.91C65.1573 221.638 64.8692 221.425 64.6774 221.281C64.5815 221.209 64.5097 221.154 64.4623 221.117L64.4095 221.076L64.3969 221.066L64.3941 221.064L64.3935 221.064L63.7002 220.514L63.5869 221.392L61.9312 234.224C45.6553 226.436 36.6311 215.031 31.6672 205.53C29.1529 200.718 27.6801 196.394 26.8364 193.275C26.4146 191.716 26.1502 190.459 25.9916 189.595C25.9123 189.162 25.8594 188.828 25.8265 188.603C25.81 188.491 25.7986 188.406 25.7913 188.35C25.7877 188.321 25.7851 188.3 25.7834 188.287L25.7817 188.272L25.7813 188.269L25.7812 188.268L25.7812 188.268L25.6521 187.123L24.904 188L12.8019 202.188C6.59931 186.243 6.41185 171.807 7.79765 161.307C8.50175 155.972 9.61185 151.655 10.5446 148.674C11.011 147.184 11.4328 146.028 11.7372 145.247C11.8894 144.856 12.0123 144.559 12.0966 144.361C12.1387 144.262 12.1712 144.187 12.193 144.138L12.2174 144.084L12.2232 144.071L12.2245 144.068L12.2247 144.067L12.2248 144.067L12.8925 142.612L11.5154 143.429L0.523574 149.942Z" fill="#FFE8BB" stroke="black"/>
<path d="M97.2151 166.963C97.2151 166.963 23.5417 222.327 24.8495 90.6743C25.2854 90.6743 7.41199 247.176 97.2151 166.963Z" fill="#3E4347"/>
<path d="M164.35 166.963C164.35 166.963 238.023 222.327 236.715 90.6743C236.279 90.6743 254.153 247.176 164.35 166.963" fill="#3E4347"/>
<path d="M163.912 166.528C164.378 166.707 164.378 166.707 164.379 166.706L164.379 166.705L164.38 166.701L164.384 166.691C164.386 166.687 164.388 166.681 164.39 166.675C164.392 166.67 164.394 166.665 164.396 166.658C164.405 166.631 164.419 166.592 164.434 166.541C164.466 166.439 164.51 166.29 164.559 166.09C164.657 165.691 164.78 165.09 164.884 164.261C165.093 162.603 165.23 160.035 164.955 156.355C164.457 149.674 162.603 139.32 157.365 124.073C170.086 145.717 177.128 161.94 180.486 174.092C184.067 187.053 183.442 195.327 181.11 200.601C178.786 205.855 174.73 208.215 171.233 209.268C169.481 209.795 167.873 209.993 166.704 210.059C166.119 210.092 165.646 210.091 165.321 210.083C165.158 210.079 165.033 210.073 164.949 210.068C164.932 210.067 164.917 210.066 164.904 210.065C164.859 209.993 164.813 209.921 164.768 209.851L163.847 208.419V210.121C163.847 210.318 163.898 210.498 164 210.651C164.07 210.756 164.155 210.834 164.239 210.89C166.075 213.896 167.993 218.426 168.043 224.348C168.096 230.448 166.168 238.068 160.057 247.067L156.512 239.977L155.933 238.819L155.583 240.066L155.583 240.066L155.583 240.066L155.583 240.067L155.582 240.072L155.576 240.093C155.57 240.112 155.561 240.141 155.55 240.18C155.54 240.213 155.527 240.254 155.512 240.301C155.492 240.364 155.469 240.438 155.441 240.523C155.342 240.824 155.19 241.262 154.979 241.804C154.557 242.89 153.899 244.394 152.959 246.058C151.184 249.203 148.418 252.895 144.358 255.448V245.868L143.39 245.698C143.389 245.697 143.389 245.697 143.389 245.697L163.912 166.528ZM163.912 166.528L164.378 166.707L164.289 166.938L164.052 167.007L131.357 176.598L131.22 176.638L131.082 176.6L96.6431 167.009L96.397 166.941L96.3083 166.701L96.7772 166.528C96.3083 166.701 96.3081 166.701 96.3079 166.7L96.3075 166.699L96.3062 166.695L96.3026 166.685C96.2997 166.677 96.2959 166.666 96.2912 166.652C96.2817 166.624 96.2687 166.584 96.2529 166.532C96.2213 166.427 96.1783 166.274 96.1292 166.069C96.031 165.66 95.9085 165.043 95.8042 164.198C95.5954 162.507 95.459 159.899 95.7336 156.192C96.2301 149.489 98.0703 139.187 103.26 124.202C77.1356 169.097 76.6063 194.716 82.6345 209.111C85.7483 216.546 90.6298 221.037 94.7314 223.671C96.7833 224.989 98.6394 225.841 99.9796 226.363C100.65 226.624 101.19 226.803 101.561 226.915C101.746 226.971 101.889 227.011 101.984 227.037C102.032 227.049 102.067 227.058 102.091 227.064L102.116 227.07L102.122 227.072L102.122 227.072M163.912 166.528L102.122 227.072M102.122 227.072L102.123 227.072L102.122 227.072ZM116.427 245.698L115.458 245.868V255.284C107.851 248.998 104.601 242.195 103.256 236.917C102.559 234.183 102.372 231.853 102.359 230.211C102.352 229.39 102.389 228.742 102.427 228.302C102.446 228.081 102.465 227.913 102.479 227.802C102.482 227.779 102.485 227.759 102.487 227.741C102.491 227.715 102.494 227.693 102.496 227.677L102.501 227.648L102.502 227.642L102.502 227.641L102.502 227.641L116.427 245.698Z" fill="#F5F5F5" stroke="black"/>
<path d="M130.796 226.597C129.543 220.843 126.619 192.075 127.037 174.175H134.138C133.721 190.157 136.645 218.925 137.48 222.761L130.796 226.597" fill="#3E4347"/>
<path d="M135.571 234.097C124.617 237.288 110.088 231.686 89.4029 209.636C98.1694 211.343 110.8 212.286 123.776 211.77C136.991 211.244 150.621 209.202 160.916 204.873C157.627 211.715 154.124 218.066 150.131 223.153C145.904 228.538 141.157 232.471 135.571 234.097Z" fill="#D72F2F" stroke="black"/>
<path d="M142.044 217.188C141.438 220.949 142.416 227.73 143.285 230.253C143.285 230.253 144.867 229.067 145.657 228.276C146.448 227.485 148.03 225.508 148.03 225.508C145.782 220.878 142.296 215.621 142.044 217.188Z" fill="#F9F9F9" stroke="black"/>
<path d="M116.189 219.932C118.014 223.276 119.064 230.061 119.086 232.729C119.086 232.729 117.487 232.074 116.478 231.592C115.469 231.11 113.319 229.773 113.319 229.773C113.894 224.658 115.429 218.539 116.189 219.932Z" fill="#F9F9F9" stroke="black"/>
<path d="M163.04 164.785C150.398 159.118 110.292 159.554 98.0854 164.785C93.2901 166.965 106.804 180.043 130.345 180.043C154.757 180.043 167.835 166.965 163.04 164.785Z" fill="#947151"/>
<path d="M110.292 111.599C100.702 172.631 30.5156 157.373 30.5156 104.188C30.5156 75.8525 30.5156 75.8525 74.5453 66.2619C119.011 56.2353 114.216 88.9306 110.292 111.599Z" fill="#FFE8BB"/>
<path d="M103.316 114.651C98.9571 157.809 35.3102 150.834 39.2337 107.676C40.9774 91.1102 40.9774 89.3665 72.8009 92.854C105.06 96.3415 104.624 98.0852 103.316 114.651Z" fill="#3E4347"/>
<path d="M93.727 112.036C90.6754 138.193 45.7739 134.269 48.8254 108.113C50.1332 98.5224 50.1332 97.6505 72.3661 99.8302C95.0348 102.01 95.0348 102.446 93.727 112.036" fill="white"/>
<path d="M90.2404 106.804C90.2404 112.907 85.4451 117.702 79.7779 117.702C74.1107 117.702 69.3154 112.907 69.3154 106.804C69.3154 100.701 74.1107 97.2134 79.7779 97.2134C85.4451 97.2134 90.2404 101.137 90.2404 106.804Z" fill="#3E4347"/>
<path d="M150.833 111.6C160.423 172.195 230.609 157.373 230.609 103.753C230.609 75.4171 230.609 75.4171 186.58 65.8264C142.55 56.2358 147.345 88.9311 150.833 111.6" fill="#FFE8BB"/>
<path d="M158.244 114.651C162.604 157.809 226.251 150.834 222.327 107.676C220.583 91.1102 220.583 89.3665 188.76 92.854C156.501 96.3415 156.501 98.0852 158.244 114.651Z" fill="#3E4347"/>
<path d="M167.398 112.036C170.45 138.193 215.351 134.269 212.3 108.113C210.992 98.5224 210.992 97.6505 188.759 99.8302C166.526 102.01 166.526 102.446 167.398 112.036" fill="white"/>
<path d="M188.326 106.804C188.326 112.907 193.121 117.702 198.789 117.702C204.456 117.702 209.251 112.907 209.251 106.804C209.251 100.701 204.456 97.2134 198.789 97.2134C193.121 97.2134 188.326 101.137 188.326 106.804Z" fill="#3E4347"/>
<path d="M110.571 223.698C108.498 220.722 106.448 213.905 106.142 211.366L112.23 211.613C112.234 216.55 111.435 224.939 110.571 223.698Z" fill="#F9F9F9" stroke="black"/>
<path d="M148.816 220.989C150.378 217.644 151.238 210.481 151.097 207.898L145.011 209.273C145.879 214.186 148.165 222.384 148.816 220.989Z" fill="#F9F9F9" stroke="black"/>
</svg>
