<svg width="45" height="45" viewBox="0 0 45 45" fill="none" xmlns="http://www.w3.org/2000/svg">
<path d="M6 34C6 32.8 5.33333 19.1667 5 12.5L15 7.5C23.5 8.33333 40.7 10.7 41.5 13.5C42.5 17 41.5 26 41.5 31C41.5 35 39.8333 36.6667 39 37C35 38 26.8 40.1 26 40.5C25 41 6 35.5 6 34Z" fill="#4A76A8"/>
<path d="M29.4065 0H15.5929C2.98731 0 -0.000976562 2.98828 -0.000976562 15.5939V29.4075C-0.000976562 42.0131 2.98731 45.0014 15.5929 45.0014H29.4065C42.0121 45.0014 45.0004 42.0131 45.0004 29.4075V15.5939C45.0004 2.98828 41.9826 0 29.4065 0ZM36.3281 32.1019H33.0614C31.8239 32.1019 31.4428 31.1203 29.2167 28.8647C27.2831 26.9902 26.4267 26.7413 25.95 26.7413C25.2764 26.7413 25.0851 26.9311 25.0851 27.855V30.8067C25.0851 31.5984 24.8362 32.0737 22.7409 32.0737C19.2759 32.0737 15.4312 29.9784 12.7354 26.0747C8.66996 20.3541 7.55762 16.0692 7.55762 15.1833C7.55762 14.7066 7.74746 14.2608 8.66293 14.2608H11.9367C12.765 14.2608 13.08 14.6419 13.402 15.5278C15.0206 20.2008 17.7164 24.2944 18.8287 24.2944C19.2393 24.2944 19.4292 24.1045 19.4292 23.0569V18.2306C19.304 16.0045 18.1326 15.8133 18.1326 15.023C18.1326 14.6419 18.4476 14.2608 18.9525 14.2608H24.1007C24.7968 14.2608 25.0528 14.6419 25.0528 15.4617V21.9727C25.0528 22.6758 25.3678 22.9247 25.5576 22.9247C25.9682 22.9247 26.3198 22.6758 27.0806 21.9136C29.4318 19.2769 31.1165 15.2114 31.1165 15.2114C31.3359 14.7347 31.717 14.2889 32.5453 14.2889H35.819C36.8006 14.2889 37.02 14.7938 36.8006 15.4969C36.39 17.4009 32.3836 23.0555 32.3836 23.0555C32.039 23.6264 31.9068 23.8753 32.3836 24.5123C32.7351 24.9891 33.8784 25.9777 34.6392 26.8636C36.0384 28.4527 37.1142 29.7858 37.4011 30.7083C37.7231 31.6238 37.2478 32.1005 36.3239 32.1005L36.3281 32.1019Z" fill="white"/>
</svg>
