<svg width="275" height="258" viewBox="0 0 275 258" fill="none" xmlns="http://www.w3.org/2000/svg">
<path d="M211.221 26.8947C189.498 11.5394 163.231 5.11199 137.049 5.0186C110.617 4.92432 85.0631 12.2547 62.7037 26.2275C39.924 40.463 15.2722 59.027 7.29972 86.7036C3.28527 100.64 5.03172 114.392 8.67802 127.49C11.0198 135.901 14.3101 144.516 17.4779 152.811C19.1401 157.163 20.7685 161.426 22.2085 165.526C23.4399 169.032 24.6452 172.673 25.87 176.374C28.7564 185.095 31.7513 194.143 35.4509 202.513C40.7983 214.611 47.9084 226.064 59.1422 234.601C81.3496 251.477 110.692 252.039 136.407 252.532L136.935 252.542C163.5 253.052 192.668 252.895 216.693 237.766C241.137 222.372 259.585 197.87 267.023 170.014C274.352 142.571 266.453 114.496 256.669 89.4735C247.217 65.2971 233.138 42.387 211.221 26.8947Z" stroke="#0497BA" stroke-width="10"/>
</svg>
