<svg width="659" height="585" viewBox="0 0 659 585" fill="none" xmlns="http://www.w3.org/2000/svg">
<path fill-rule="evenodd" clip-rule="evenodd" d="M341.895 5.49307C414.459 6.23749 435.478 73.1867 493.748 112.111C536.396 156.013 618.343 150.732 648.71 210.45C663.27 269.151 641.918 310.308 625.611 368.636C608.078 431.352 582.886 486.38 527.858 527.973C462.117 553.248 415.55 584.332 341.895 579.278C271.89 574.474 185.874 564.943 128.939 527.973C71.8183 490.881 62.6545 453.613 37.4252 394.429C11.4176 333.42 -5.22665 267.335 14.9462 204.563C45.7447 157.144 135.24 181.703 182.819 112.111C222.933 65.0973 268.453 4.73964 341.895 5.49307Z" stroke="#0497BA" stroke-width="10"/>
</svg>
