<svg width="104" height="115" viewBox="0 0 104 115" fill="none" xmlns="http://www.w3.org/2000/svg">
<path d="M3 0C3 101.654 4.28453 102.43 96 102.43M96 102.43L67.2265 91.3072M96 102.43L68.768 112" stroke="#004758" stroke-width="5"/>
</svg>
